[
    {
        "sigla": "ES",
        "nomeEstado": "Espírito Santo",
        "ID": "1",
        "Nome": "Afonso Cláudio",
        "Estado": "8"
    },
    {
        "sigla": "ES",
        "nomeEstado": "Espírito Santo",
        "ID": "2",
        "Nome": "Água Doce do Norte",
        "Estado": "8"
    },
    {
        "sigla": "ES",
        "nomeEstado": "Espírito Santo",
        "ID": "3",
        "Nome": "Águia Branca",
        "Estado": "8"
    },
    {
        "sigla": "ES",
        "nomeEstado": "Espírito Santo",
        "ID": "4",
        "Nome": "Alegre",
        "Estado": "8"
    },
    {
        "sigla": "ES",
        "nomeEstado": "Espírito Santo",
        "ID": "5",
        "Nome": "Alfredo Chaves",
        "Estado": "8"
    },
    {
        "sigla": "ES",
        "nomeEstado": "Espírito Santo",
        "ID": "6",
        "Nome": "Alto Rio Novo",
        "Estado": "8"
    },
    {
        "sigla": "ES",
        "nomeEstado": "Espírito Santo",
        "ID": "7",
        "Nome": "Anchieta",
        "Estado": "8"
    },
    {
        "sigla": "ES",
        "nomeEstado": "Espírito Santo",
        "ID": "8",
        "Nome": "Apiacá",
        "Estado": "8"
    },
    {
        "sigla": "ES",
        "nomeEstado": "Espírito Santo",
        "ID": "9",
        "Nome": "Aracruz",
        "Estado": "8"
    },
    {
        "sigla": "ES",
        "nomeEstado": "Espírito Santo",
        "ID": "10",
        "Nome": "Atilio Vivacqua",
        "Estado": "8"
    },
    {
        "sigla": "ES",
        "nomeEstado": "Espírito Santo",
        "ID": "11",
        "Nome": "Baixo Guandu",
        "Estado": "8"
    },
    {
        "sigla": "ES",
        "nomeEstado": "Espírito Santo",
        "ID": "12",
        "Nome": "Barra de São Francisco",
        "Estado": "8"
    },
    {
        "sigla": "ES",
        "nomeEstado": "Espírito Santo",
        "ID": "13",
        "Nome": "Boa Esperança",
        "Estado": "8"
    },
    {
        "sigla": "ES",
        "nomeEstado": "Espírito Santo",
        "ID": "14",
        "Nome": "Bom Jesus do Norte",
        "Estado": "8"
    },
    {
        "sigla": "ES",
        "nomeEstado": "Espírito Santo",
        "ID": "15",
        "Nome": "Brejetuba",
        "Estado": "8"
    },
    {
        "sigla": "ES",
        "nomeEstado": "Espírito Santo",
        "ID": "16",
        "Nome": "Cachoeiro de Itapemirim",
        "Estado": "8"
    },
    {
        "sigla": "ES",
        "nomeEstado": "Espírito Santo",
        "ID": "17",
        "Nome": "Cariacica",
        "Estado": "8"
    },
    {
        "sigla": "ES",
        "nomeEstado": "Espírito Santo",
        "ID": "18",
        "Nome": "Castelo",
        "Estado": "8"
    },
    {
        "sigla": "ES",
        "nomeEstado": "Espírito Santo",
        "ID": "19",
        "Nome": "Colatina",
        "Estado": "8"
    },
    {
        "sigla": "ES",
        "nomeEstado": "Espírito Santo",
        "ID": "20",
        "Nome": "Conceição da Barra",
        "Estado": "8"
    },
    {
        "sigla": "ES",
        "nomeEstado": "Espírito Santo",
        "ID": "21",
        "Nome": "Conceição do Castelo",
        "Estado": "8"
    },
    {
        "sigla": "ES",
        "nomeEstado": "Espírito Santo",
        "ID": "22",
        "Nome": "Divino de São Lourenço",
        "Estado": "8"
    },
    {
        "sigla": "ES",
        "nomeEstado": "Espírito Santo",
        "ID": "23",
        "Nome": "Domingos Martins",
        "Estado": "8"
    },
    {
        "sigla": "ES",
        "nomeEstado": "Espírito Santo",
        "ID": "24",
        "Nome": "Dores do Rio Preto",
        "Estado": "8"
    },
    {
        "sigla": "ES",
        "nomeEstado": "Espírito Santo",
        "ID": "25",
        "Nome": "Ecoporanga",
        "Estado": "8"
    },
    {
        "sigla": "ES",
        "nomeEstado": "Espírito Santo",
        "ID": "26",
        "Nome": "Fundão",
        "Estado": "8"
    },
    {
        "sigla": "ES",
        "nomeEstado": "Espírito Santo",
        "ID": "27",
        "Nome": "Governador Lindenberg",
        "Estado": "8"
    },
    {
        "sigla": "ES",
        "nomeEstado": "Espírito Santo",
        "ID": "28",
        "Nome": "Guaçuí",
        "Estado": "8"
    },
    {
        "sigla": "ES",
        "nomeEstado": "Espírito Santo",
        "ID": "29",
        "Nome": "Guarapari",
        "Estado": "8"
    },
    {
        "sigla": "ES",
        "nomeEstado": "Espírito Santo",
        "ID": "30",
        "Nome": "Ibatiba",
        "Estado": "8"
    },
    {
        "sigla": "ES",
        "nomeEstado": "Espírito Santo",
        "ID": "31",
        "Nome": "Ibiraçu",
        "Estado": "8"
    },
    {
        "sigla": "ES",
        "nomeEstado": "Espírito Santo",
        "ID": "32",
        "Nome": "Ibitirama",
        "Estado": "8"
    },
    {
        "sigla": "ES",
        "nomeEstado": "Espírito Santo",
        "ID": "33",
        "Nome": "Iconha",
        "Estado": "8"
    },
    {
        "sigla": "ES",
        "nomeEstado": "Espírito Santo",
        "ID": "34",
        "Nome": "Irupi",
        "Estado": "8"
    },
    {
        "sigla": "ES",
        "nomeEstado": "Espírito Santo",
        "ID": "35",
        "Nome": "Itaguaçu",
        "Estado": "8"
    },
    {
        "sigla": "ES",
        "nomeEstado": "Espírito Santo",
        "ID": "36",
        "Nome": "Itapemirim",
        "Estado": "8"
    },
    {
        "sigla": "ES",
        "nomeEstado": "Espírito Santo",
        "ID": "37",
        "Nome": "Itarana",
        "Estado": "8"
    },
    {
        "sigla": "ES",
        "nomeEstado": "Espírito Santo",
        "ID": "38",
        "Nome": "Iúna",
        "Estado": "8"
    },
    {
        "sigla": "ES",
        "nomeEstado": "Espírito Santo",
        "ID": "39",
        "Nome": "Jaguaré",
        "Estado": "8"
    },
    {
        "sigla": "ES",
        "nomeEstado": "Espírito Santo",
        "ID": "40",
        "Nome": "Jerônimo Monteiro",
        "Estado": "8"
    },
    {
        "sigla": "ES",
        "nomeEstado": "Espírito Santo",
        "ID": "41",
        "Nome": "João Neiva",
        "Estado": "8"
    },
    {
        "sigla": "ES",
        "nomeEstado": "Espírito Santo",
        "ID": "42",
        "Nome": "Laranja da Terra",
        "Estado": "8"
    },
    {
        "sigla": "ES",
        "nomeEstado": "Espírito Santo",
        "ID": "43",
        "Nome": "Linhares",
        "Estado": "8"
    },
    {
        "sigla": "ES",
        "nomeEstado": "Espírito Santo",
        "ID": "44",
        "Nome": "Mantenópolis",
        "Estado": "8"
    },
    {
        "sigla": "ES",
        "nomeEstado": "Espírito Santo",
        "ID": "45",
        "Nome": "Marataízes",
        "Estado": "8"
    },
    {
        "sigla": "ES",
        "nomeEstado": "Espírito Santo",
        "ID": "46",
        "Nome": "Marechal Floriano",
        "Estado": "8"
    },
    {
        "sigla": "ES",
        "nomeEstado": "Espírito Santo",
        "ID": "47",
        "Nome": "Marilândia",
        "Estado": "8"
    },
    {
        "sigla": "ES",
        "nomeEstado": "Espírito Santo",
        "ID": "48",
        "Nome": "Mimoso do Sul",
        "Estado": "8"
    },
    {
        "sigla": "ES",
        "nomeEstado": "Espírito Santo",
        "ID": "49",
        "Nome": "Montanha",
        "Estado": "8"
    },
    {
        "sigla": "ES",
        "nomeEstado": "Espírito Santo",
        "ID": "50",
        "Nome": "Mucurici",
        "Estado": "8"
    },
    {
        "sigla": "ES",
        "nomeEstado": "Espírito Santo",
        "ID": "51",
        "Nome": "Muniz Freire",
        "Estado": "8"
    },
    {
        "sigla": "ES",
        "nomeEstado": "Espírito Santo",
        "ID": "52",
        "Nome": "Muqui",
        "Estado": "8"
    },
    {
        "sigla": "ES",
        "nomeEstado": "Espírito Santo",
        "ID": "53",
        "Nome": "Nova Venécia",
        "Estado": "8"
    },
    {
        "sigla": "ES",
        "nomeEstado": "Espírito Santo",
        "ID": "54",
        "Nome": "Pancas",
        "Estado": "8"
    },
    {
        "sigla": "ES",
        "nomeEstado": "Espírito Santo",
        "ID": "55",
        "Nome": "Pedro Canário",
        "Estado": "8"
    },
    {
        "sigla": "ES",
        "nomeEstado": "Espírito Santo",
        "ID": "56",
        "Nome": "Pinheiros",
        "Estado": "8"
    },
    {
        "sigla": "ES",
        "nomeEstado": "Espírito Santo",
        "ID": "57",
        "Nome": "Piúma",
        "Estado": "8"
    },
    {
        "sigla": "ES",
        "nomeEstado": "Espírito Santo",
        "ID": "58",
        "Nome": "Ponto Belo",
        "Estado": "8"
    },
    {
        "sigla": "ES",
        "nomeEstado": "Espírito Santo",
        "ID": "59",
        "Nome": "Presidente Kennedy",
        "Estado": "8"
    },
    {
        "sigla": "ES",
        "nomeEstado": "Espírito Santo",
        "ID": "60",
        "Nome": "Rio Bananal",
        "Estado": "8"
    },
    {
        "sigla": "ES",
        "nomeEstado": "Espírito Santo",
        "ID": "61",
        "Nome": "Rio Novo do Sul",
        "Estado": "8"
    },
    {
        "sigla": "ES",
        "nomeEstado": "Espírito Santo",
        "ID": "62",
        "Nome": "Santa Leopoldina",
        "Estado": "8"
    },
    {
        "sigla": "ES",
        "nomeEstado": "Espírito Santo",
        "ID": "63",
        "Nome": "Santa Maria de Jetibá",
        "Estado": "8"
    },
    {
        "sigla": "ES",
        "nomeEstado": "Espírito Santo",
        "ID": "64",
        "Nome": "Santa Teresa",
        "Estado": "8"
    },
    {
        "sigla": "ES",
        "nomeEstado": "Espírito Santo",
        "ID": "65",
        "Nome": "São Domingos do Norte",
        "Estado": "8"
    },
    {
        "sigla": "ES",
        "nomeEstado": "Espírito Santo",
        "ID": "66",
        "Nome": "São Gabriel da Palha",
        "Estado": "8"
    },
    {
        "sigla": "ES",
        "nomeEstado": "Espírito Santo",
        "ID": "67",
        "Nome": "São José do Calçado",
        "Estado": "8"
    },
    {
        "sigla": "ES",
        "nomeEstado": "Espírito Santo",
        "ID": "68",
        "Nome": "São Mateus",
        "Estado": "8"
    },
    {
        "sigla": "ES",
        "nomeEstado": "Espírito Santo",
        "ID": "69",
        "Nome": "São Roque do Canaã",
        "Estado": "8"
    },
    {
        "sigla": "ES",
        "nomeEstado": "Espírito Santo",
        "ID": "70",
        "Nome": "Serra",
        "Estado": "8"
    },
    {
        "sigla": "ES",
        "nomeEstado": "Espírito Santo",
        "ID": "71",
        "Nome": "Sooretama",
        "Estado": "8"
    },
    {
        "sigla": "ES",
        "nomeEstado": "Espírito Santo",
        "ID": "72",
        "Nome": "Vargem Alta",
        "Estado": "8"
    },
    {
        "sigla": "ES",
        "nomeEstado": "Espírito Santo",
        "ID": "73",
        "Nome": "Venda Nova do Imigrante",
        "Estado": "8"
    },
    {
        "sigla": "ES",
        "nomeEstado": "Espírito Santo",
        "ID": "74",
        "Nome": "Viana",
        "Estado": "8"
    },
    {
        "sigla": "ES",
        "nomeEstado": "Espírito Santo",
        "ID": "75",
        "Nome": "Vila Pavão",
        "Estado": "8"
    },
    {
        "sigla": "ES",
        "nomeEstado": "Espírito Santo",
        "ID": "76",
        "Nome": "Vila Valério",
        "Estado": "8"
    },
    {
        "sigla": "ES",
        "nomeEstado": "Espírito Santo",
        "ID": "77",
        "Nome": "Vila Velha",
        "Estado": "8"
    },
    {
        "sigla": "ES",
        "nomeEstado": "Espírito Santo",
        "ID": "78",
        "Nome": "Vitória",
        "Estado": "8"
    }
]